<?xml version="1.0" standalone="no"?>
<!DOCTYPE svg PUBLIC "-//W3C//DTD SVG 20010904//EN"
 "http://www.w3.org/TR/2001/REC-SVG-20010904/DTD/svg10.dtd">
<svg version="1.0" xmlns="http://www.w3.org/2000/svg"
 width="1600.000000pt" height="1032.000000pt" viewBox="0 0 1600.000000 1032.000000"
 preserveAspectRatio="xMidYMid meet">

<g transform="translate(0.000000,1032.000000) scale(0.100000,-0.100000)"
fill="#000000" stroke="none">
<path d="M0 5160 l0 -5160 8000 0 8000 0 0 5160 0 5160 -8000 0 -8000 0 0
-5160z m8850 3994 c64 -39 60 80 60 -1705 l0 -1621 -31 -71 c-17 -40 -37 -85
-44 -102 -34 -76 -60 -137 -163 -375 -61 -140 -149 -343 -195 -450 l-85 -194
27 -13 c29 -13 349 -152 367 -160 7 -2 31 42 58 104 26 59 52 112 57 118 5 5
9 -326 9 -845 0 -956 4 -906 -70 -942 -33 -17 -160 -18 -2228 -18 -2395 0
-2224 -4 -2271 56 l-21 27 0 2251 0 2251 973 852 972 852 1278 1 c1170 0 1281
-1 1307 -16z m3781 -721 c23 -49 56 -119 74 -158 18 -38 64 -135 102 -215 324
-677 485 -1021 482 -1024 -7 -5 -430 -246 -434 -246 -1 0 -10 18 -19 41 -15
37 -18 40 -36 28 -139 -100 -219 -149 -313 -194 -188 -89 -344 -120 -682 -135
-121 -6 -265 -16 -320 -23 -137 -16 -323 -14 -414 6 l-74 17 -81 -66 c-63 -52
-91 -83 -128 -147 -26 -44 -48 -81 -48 -82 0 -2 51 13 113 32 70 22 142 37
192 40 73 5 83 3 115 -19 19 -13 45 -41 57 -63 20 -36 53 -130 53 -152 0 -4
-20 -21 -45 -38 -24 -16 -43 -32 -42 -35 66 -127 87 -179 85 -209 -6 -70 -92
-99 -320 -108 l-148 -6 0 -49 c0 -52 -10 -79 -43 -115 -35 -39 -66 -38 -174 6
-54 23 -161 57 -238 77 -77 19 -166 47 -198 61 -68 31 -150 113 -224 227 l-50
76 -6 -93 c-6 -106 -27 -167 -69 -202 -59 -50 -165 -24 -222 54 -72 98 -83
235 -33 408 13 45 21 87 17 93 -4 7 -24 5 -60 -6 -129 -38 -292 25 -320 124
-30 109 -2 203 92 303 44 47 78 69 195 128 78 39 201 93 274 120 72 27 132 51
134 53 1 2 25 56 53 120 l50 116 -62 27 c-169 75 -304 133 -324 139 -19 7 -25
2 -41 -36 -11 -24 -72 -164 -136 -313 -64 -148 -118 -272 -121 -274 -9 -9 -43
33 -73 88 -35 66 -41 131 -17 197 20 58 98 187 175 289 171 229 290 395 320
450 38 67 52 91 105 187 43 77 90 120 155 143 72 25 243 29 496 11 580 -41
935 -49 1135 -26 182 21 342 67 495 143 86 42 87 44 69 79 -9 17 -12 34 -7 38
4 5 69 35 143 68 74 33 169 76 210 95 41 20 78 36 82 36 4 1 26 -38 49 -86z
m-8530 -5527 c46 -12 147 -47 224 -76 335 -126 431 -150 597 -150 125 1 202
14 457 80 191 49 274 54 338 21 45 -23 122 -103 160 -168 13 -24 31 -43 38
-43 8 0 98 13 202 29 695 108 1124 142 1353 107 220 -34 359 -87 451 -173 92
-85 100 -146 23 -183 -36 -18 -79 -24 -236 -35 -373 -27 -440 -40 -1008 -193
-102 -28 -241 -64 -310 -80 -135 -33 -587 -122 -620 -122 -10 0 -34 -13 -53
-30 -94 -82 -229 -117 -752 -196 -505 -75 -705 -113 -1048 -196 -225 -54 -209
-47 -397 -183 -41 -30 -93 -67 -115 -82 -22 -15 -88 -63 -147 -106 l-106 -77
84 -147 c75 -133 82 -148 66 -158 -9 -7 -109 -63 -222 -125 -113 -62 -236
-130 -273 -151 -38 -22 -75 -39 -82 -39 -7 0 -66 91 -131 203 -64 111 -174
301 -244 422 -70 121 -198 341 -284 490 -86 148 -156 274 -156 280 0 6 17 23
38 36 99 66 489 333 503 345 25 22 32 17 64 -41 16 -30 31 -55 32 -55 2 0 51
35 110 78 60 43 202 147 317 230 115 84 217 163 226 177 100 152 365 303 595
339 62 9 225 -5 306 -28z"/>
<path d="M5274 7082 c-112 -53 -124 -216 -20 -277 56 -32 134 -34 182 -4 19
11 34 25 34 30 0 6 -12 2 -27 -9 -42 -29 -78 -34 -117 -18 -47 20 -69 71 -64
149 5 64 28 104 72 125 38 19 93 -2 123 -46 l21 -32 0 43 c0 42 -1 43 -31 44
-18 1 -54 4 -82 7 -38 5 -60 2 -91 -12z"/>
<path d="M5614 7082 c-56 -27 -84 -74 -84 -144 0 -97 63 -158 164 -158 162 0
226 195 95 292 -38 29 -125 33 -175 10z m126 -12 c29 -29 40 -63 40 -119 0
-71 -10 -108 -36 -136 -31 -33 -73 -33 -105 1 -22 24 -24 34 -24 126 0 97 1
100 28 124 34 29 70 31 97 4z"/>
<path d="M6995 6947 c-61 -133 -73 -152 -95 -155 -21 -2 -34 8 -73 63 -49 68
-56 85 -34 85 23 0 47 35 47 69 0 21 -9 41 -25 56 -22 23 -31 25 -122 25 l-98
0 3 -145 c3 -144 3 -145 -20 -154 -17 -7 -2 -10 57 -10 58 0 74 3 58 9 -21 8
-23 16 -23 75 0 46 4 65 13 65 7 0 36 -33 64 -74 l52 -74 103 0 c71 -1 96 2
81 8 -25 10 -30 39 -13 71 9 15 22 19 66 19 54 0 55 -1 70 -37 15 -34 15 -38
-2 -50 -15 -11 -8 -13 51 -13 64 0 67 1 53 18 -9 9 -44 80 -77 157 -34 77 -63
140 -64 142 -1 1 -34 -67 -72 -150z m-243 116 c23 -20 24 -80 1 -105 -9 -10
-30 -18 -50 -18 l-33 0 0 70 0 70 32 0 c17 0 40 -7 50 -17z m301 -100 c8 -16
18 -38 21 -50 7 -22 4 -23 -39 -23 -43 0 -46 1 -39 23 9 29 33 77 39 77 2 0
11 -12 18 -27z"/>
<path d="M7350 7078 c-33 -17 -51 -35 -67 -68 -62 -121 18 -238 157 -228 52 4
109 30 110 51 0 5 -13 -1 -28 -11 -37 -27 -91 -36 -122 -20 -55 29 -79 148
-43 222 36 76 133 81 175 10 11 -19 21 -34 21 -34 1 0 2 22 2 49 0 39 -3 47
-13 39 -9 -8 -24 -8 -51 1 -56 16 -91 14 -141 -11z"/>
<path d="M5918 7078 c8 -8 12 -55 12 -145 0 -129 -1 -134 -22 -143 -17 -6 -8
-9 37 -8 33 0 50 3 37 5 -13 3 -25 10 -28 17 -3 7 -3 61 -2 122 l3 109 105
-130 105 -130 3 144 c1 86 7 150 14 158 8 10 5 13 -16 13 -23 0 -25 -2 -16
-26 12 -31 13 -154 2 -154 -5 0 -41 41 -80 90 l-72 90 -47 0 c-37 0 -44 -3
-35 -12z"/>
<path d="M6240 7053 c1 -33 2 -35 12 -18 16 30 39 45 70 45 l28 0 0 -140 c0
-136 -1 -141 -22 -150 -17 -6 0 -9 57 -8 55 0 73 3 58 9 -22 8 -23 12 -23 149
l0 140 28 0 c32 0 45 -8 60 -35 10 -18 11 -17 12 13 l0 32 -140 0 -140 0 0
-37z"/>
<path d="M7600 7053 l0 -38 20 33 c16 26 26 32 55 32 l35 0 0 -140 c0 -137 -1
-141 -22 -149 -16 -6 2 -9 57 -9 57 -1 74 2 58 8 -22 9 -23 14 -23 150 l0 140
29 0 c20 0 36 -9 50 -26 l21 -27 0 32 0 31 -140 0 -140 0 0 -37z"/>
<path d="M8376 4593 c-46 -158 -176 -624 -176 -631 0 -11 228 -114 242 -110
15 5 347 582 340 589 -9 9 -381 169 -392 169 -5 0 -11 -8 -14 -17z"/>
<path d="M8235 3898 c-2 -7 -13 -62 -24 -123 -11 -60 -27 -143 -35 -184 -8
-40 -11 -69 -7 -65 20 24 201 312 201 320 0 6 -26 21 -57 35 -32 13 -61 25
-65 27 -4 2 -10 -2 -13 -10z"/>
<path d="M7712 3868 c-18 -18 -14 -58 13 -115 26 -56 40 -65 50 -33 3 11 10
20 14 20 5 0 45 -33 89 -72 l81 -73 -77 -2 c-42 -1 -127 -7 -188 -14 -77 -8
-116 -9 -130 -1 -15 8 -33 4 -78 -15 -72 -30 -142 -39 -176 -21 -18 10 -29 29
-41 77 -19 73 -62 124 -137 162 -38 19 -66 25 -143 27 -86 3 -105 1 -189 -28
-133 -44 -223 -94 -245 -134 -13 -24 -32 -38 -77 -56 -162 -65 -233 -170 -157
-234 51 -43 147 -31 224 29 l35 26 51 -36 c93 -69 282 -132 314 -105 23 19 18
39 -12 46 -119 26 -251 83 -289 125 -28 31 -8 33 42 4 47 -28 47 -28 81 -10
19 10 49 35 68 56 32 36 34 37 50 19 9 -10 33 -26 52 -35 34 -16 35 -19 29
-56 -9 -54 10 -50 35 6 11 25 25 45 32 45 11 0 41 19 135 87 23 16 24 15 47
-13 29 -35 30 -49 9 -111 -23 -68 -77 -148 -151 -226 -36 -37 -62 -71 -58 -75
4 -4 42 29 84 74 72 76 143 187 160 252 7 24 11 26 72 27 35 1 84 10 109 20
44 17 62 19 125 14 17 -1 71 3 120 11 98 14 346 9 402 -8 26 -8 34 -7 47 7 24
26 19 38 -17 45 -43 8 -104 54 -257 192 -67 60 -125 110 -129 112 -4 1 -12 -3
-19 -10z m-627 -132 c50 -23 125 -85 125 -102 -1 -12 -97 -87 -137 -108 -46
-23 -54 -21 -104 27 -64 61 -150 92 -254 92 -44 0 -96 -4 -115 -9 -105 -25 99
76 220 110 25 7 83 13 130 13 69 1 94 -4 135 -23z m-297 -153 c30 -10 57 -23
59 -31 5 -12 -63 -82 -80 -82 -5 0 -33 16 -63 36 -58 39 -76 37 -94 -11 -7
-18 -9 -17 -29 15 -29 47 -24 73 14 81 57 12 139 9 193 -8z m-244 -121 c17
-32 17 -34 -1 -47 -21 -16 -91 -35 -127 -35 -30 0 -86 45 -86 70 0 25 50 62
125 93 l60 25 6 -36 c3 -20 13 -52 23 -70z"/>
<path d="M9944 7830 c-15 -6 -50 -75 -128 -255 -60 -136 -104 -250 -99 -254
12 -12 143 -65 146 -60 2 2 52 116 111 252 105 243 107 249 91 273 -9 14 -32
32 -50 40 -39 16 -42 16 -71 4z"/>
<path d="M9975 7117 l-24 -52 22 -11 c57 -30 64 -28 86 22 12 26 21 49 21 53
0 3 -18 14 -41 23 l-40 17 -24 -52z"/>
<path d="M10081 7069 c-12 -28 -20 -53 -18 -55 7 -7 107 27 107 36 0 4 3 15 6
24 4 10 -5 20 -31 30 -21 9 -38 16 -39 16 -1 0 -12 -23 -25 -51z"/>
<path d="M9781 6279 c-24 -5 -45 -10 -46 -11 -6 -6 -75 -179 -75 -186 0 -11
68 -43 73 -34 14 23 99 233 96 236 -2 1 -24 -1 -48 -5z"/>
<path d="M9656 6255 c-21 -7 -42 -17 -46 -22 -9 -9 28 -138 37 -129 6 6 73
156 73 163 0 6 -26 2 -64 -12z"/>
</g>
</svg>
